#Module_ID  #ASIC_ID  #Channel  #ADC_To_MIP  #LowGain_To_HighGain_Transition  #LowGain_To_HighGain_Conversion  #TOT_To_LowGain_Transition  #TOT_To_LowGain_Conversion  #TOT_Offset  #Fully_calibrated--  -  --  ---------  -------  -------  ----  -------  ---  -
666  0  0  0.0217643  1823.88  7.97641  1113  5        177  0
666  0  2  0.0217643  1823.88  7.97641  1113  5        177  0
666  0  4  0.0217643  1823.88  7.97641  1113  5        177  0
666  0  6  0.0217643  1823.88  7.97641  1113  5        177  0
666  0  8  0.0217643  1823.88  7.97641  1113  5        177  0
666  0  10  0.0217643  1823.88  7.97641  1113  5        177  0
666  0  12  0.0217643  1823.88  7.97641  1113  5        177  0
666  0  14  0.0217643  1823.88  7.97641  1113  5        177  0
666  0  16  0.0217643  1823.88  7.97641  1113  5        177  0
666  0  18  0.0217643  1823.88  7.97641  1113  5        177  0
666  0  20  0.0217643  1823.88  7.97641  1113  5        177  0
666  0  22  0.0217643  1823.88  7.97641  1113  5        177  0
666  0  24  0.0217643  1823.88  7.97641  1113  5        177  0
666  0  26  0.0217643  1823.88  7.97641  1113  5        177  0
666  0  28  0.0217643  1823.88  7.97641  1113  5        177  0
666  0  30  0.0217643  1823.88  7.97641  1113  5        177  0
666  0  32  0.0217643  1823.88  7.97641  1113  5        177  0
666  0  34  0.0217643  1823.88  7.97641  1113  5        177  0
666  0  36  0.0217643  1823.88  7.97641  1113  5        177  0
666  0  38  0.0217643  1823.88  7.97641  1113  5        177  0
666  0  40  0.0217643  1823.88  7.97641  1113  5        177  0
666  0  42  0.0217643  1823.88  7.97641  1113  5        177  0
666  0  44  0.0217643  1823.88  7.97641  1113  5        177  0
666  0  46  0.0217643  1823.88  7.97641  1113  5        177  0
666  0  48  0.0217643  1823.88  7.97641  1113  5        177  0
666  0  50  0.0217643  1823.88  7.97641  1113  5        177  0
666  0  52  0.0217643  1823.88  7.97641  1113  5        177  0
666  0  54  0.0217643  1823.88  7.97641  1113  5        177  0
666  0  56  0.0217643  1823.88  7.97641  1113  5        177  0
666  0  58  0.0217643  1823.88  7.97641  1113  5        177  0
666  0  60  0.0217643  1823.88  7.97641  1113  5        177  0
666  0  62  0.0217643  1823.88  7.97641  1113  5        177  0
666  1  0  0.0217643  1823.88  7.97641  1113  5        177  0
666  1  2  0.0217643  1823.88  7.97641  1113  5        177  0
666  1  4  0.0217643  1823.88  7.97641  1113  5        177  0
666  1  6  0.0217643  1823.88  7.97641  1113  5        177  0
666  1  8  0.0217643  1823.88  7.97641  1113  5        177  0
666  1  10  0.0217643  1823.88  7.97641  1113  5        177  0
666  1  12  0.0217643  1823.88  7.97641  1113  5        177  0
666  1  14  0.0217643  1823.88  7.97641  1113  5        177  0
666  1  16  0.0217643  1823.88  7.97641  1113  5        177  0
666  1  18  0.0217643  1823.88  7.97641  1113  5        177  0
666  1  20  0.0217643  1823.88  7.97641  1113  5        177  0
666  1  22  0.0217643  1823.88  7.97641  1113  5        177  0
666  1  24  0.0217643  1823.88  7.97641  1113  5        177  0
666  1  26  0.0217643  1823.88  7.97641  1113  5        177  0
666  1  28  0.0217643  1823.88  7.97641  1113  5        177  0
666  1  30  0.0217643  1823.88  7.97641  1113  5        177  0
666  1  32  0.0217643  1823.88  7.97641  1113  5        177  0
666  1  34  0.0217643  1823.88  7.97641  1113  5        177  0
666  1  36  0.0217643  1823.88  7.97641  1113  5        177  0
666  1  38  0.0217643  1823.88  7.97641  1113  5        177  0
666  1  40  0.0217643  1823.88  7.97641  1113  5        177  0
666  1  42  0.0217643  1823.88  7.97641  1113  5        177  0
666  1  44  0.0217643  1823.88  7.97641  1113  5        177  0
666  1  46  0.0217643  1823.88  7.97641  1113  5        177  0
666  1  48  0.0217643  1823.88  7.97641  1113  5        177  0
666  1  50  0.0217643  1823.88  7.97641  1113  5        177  0
666  1  52  0.0217643  1823.88  7.97641  1113  5        177  0
666  1  54  0.0217643  1823.88  7.97641  1113  5        177  0
666  1  56  0.0217643  1823.88  7.97641  1113  5        177  0
666  1  58  0.0217643  1823.88  7.97641  1113  5        177  0
666  1  60  0.0217643  1823.88  7.97641  1113  5        177  0
666  1  62  0.0217643  1823.88  7.97641  1113  5        177  0
666  2  0  0.0217643  1823.88  7.97641  1113  5        177  0
666  2  2  0.0217643  1823.88  7.97641  1113  5        177  0
666  2  4  0.0217643  1823.88  7.97641  1113  5        177  0
666  2  6  0.0217643  1823.88  7.97641  1113  5        177  0
666  2  8  0.0217643  1823.88  7.97641  1113  5        177  0
666  2  10  0.0217643  1823.88  7.97641  1113  5        177  0
666  2  12  0.0217643  1823.88  7.97641  1113  5        177  0
666  2  14  0.0217643  1823.88  7.97641  1113  5        177  0
666  2  16  0.0217643  1823.88  7.97641  1113  5        177  0
666  2  18  0.0217643  1823.88  7.97641  1113  5        177  0
666  2  20  0.0217643  1823.88  7.97641  1113  5        177  0
666  2  22  0.0217643  1823.88  7.97641  1113  5        177  0
666  2  24  0.0217643  1823.88  7.97641  1113  5        177  0
666  2  26  0.0217643  1823.88  7.97641  1113  5        177  0
666  2  28  0.0217643  1823.88  7.97641  1113  5        177  0
666  2  30  0.0217643  1823.88  7.97641  1113  5        177  0
666  2  32  0.0217643  1823.88  7.97641  1113  5        177  0
666  2  34  0.0217643  1823.88  7.97641  1113  5        177  0
666  2  36  0.0217643  1823.88  7.97641  1113  5        177  0
666  2  38  0.0217643  1823.88  7.97641  1113  5        177  0
666  2  40  0.0217643  1823.88  7.97641  1113  5        177  0
666  2  42  0.0217643  1823.88  7.97641  1113  5        177  0
666  2  44  0.0217643  1823.88  7.97641  1113  5        177  0
666  2  46  0.0217643  1823.88  7.97641  1113  5        177  0
666  2  48  0.0217643  1823.88  7.97641  1113  5        177  0
666  2  50  0.0217643  1823.88  7.97641  1113  5        177  0
666  2  52  0.0217643  1823.88  7.97641  1113  5        177  0
666  2  54  0.0217643  1823.88  7.97641  1113  5        177  0
666  2  56  0.0217643  1823.88  7.97641  1113  5        177  0
666  2  58  0.0217643  1823.88  7.97641  1113  5        177  0
666  2  60  0.0217643  1823.88  7.97641  1113  5        177  0
666  2  62  0.0217643  1823.88  7.97641  1113  5        177  0
666  3  0  0.0217643  1823.88  7.97641  1113  5        177  0
666  3  2  0.0217643  1823.88  7.97641  1113  5        177  0
666  3  4  0.0217643  1823.88  7.97641  1113  5        177  0
666  3  6  0.0217643  1823.88  7.97641  1113  5        177  0
666  3  8  0.0217643  1823.88  7.97641  1113  5        177  0
666  3  10  0.0217643  1823.88  7.97641  1113  5        177  0
666  3  12  0.0217643  1823.88  7.97641  1113  5        177  0
666  3  14  0.0217643  1823.88  7.97641  1113  5        177  0
666  3  16  0.0217643  1823.88  7.97641  1113  5        177  0
666  3  18  0.0217643  1823.88  7.97641  1113  5        177  0
666  3  20  0.0217643  1823.88  7.97641  1113  5        177  0
666  3  22  0.0217643  1823.88  7.97641  1113  5        177  0
666  3  24  0.0217643  1823.88  7.97641  1113  5        177  0
666  3  26  0.0217643  1823.88  7.97641  1113  5        177  0
666  3  28  0.0217643  1823.88  7.97641  1113  5        177  0
666  3  30  0.0217643  1823.88  7.97641  1113  5        177  0
666  3  32  0.0217643  1823.88  7.97641  1113  5        177  0
666  3  34  0.0217643  1823.88  7.97641  1113  5        177  0
666  3  36  0.0217643  1823.88  7.97641  1113  5        177  0
666  3  38  0.0217643  1823.88  7.97641  1113  5        177  0
666  3  40  0.0217643  1823.88  7.97641  1113  5        177  0
666  3  42  0.0217643  1823.88  7.97641  1113  5        177  0
666  3  44  0.0217643  1823.88  7.97641  1113  5        177  0
666  3  46  0.0217643  1823.88  7.97641  1113  5        177  0
666  3  48  0.0217643  1823.88  7.97641  1113  5        177  0
666  3  50  0.0217643  1823.88  7.97641  1113  5        177  0
666  3  52  0.0217643  1823.88  7.97641  1113  5        177  0
666  3  54  0.0217643  1823.88  7.97641  1113  5        177  0
666  3  56  0.0217643  1823.88  7.97641  1113  5        177  0
666  3  58  0.0217643  1823.88  7.97641  1113  5        177  0
666  3  60  0.0217643  1823.88  7.97641  1113  5        177  0
666  3  62  0.0217643  1823.88  7.97641  1113  5        177  0
--  -  --  ---------  -------  -------  ----  -------  ---  -