1 133.2
2 142.1
3 165.8
4 174.7
5 198.4
6 207.3
7 231.0
8 239.9
9 263.6
10 272.5
11 296.2
12 305.1
13 328.8
14 337.7
15 361.4
16 370.3
17 394.0
18 402.9
19 426.6
20 435.5
21 460.5
22 471.8
23 499.8
24 512.7
25 539.4
26 549.46
27 576.16
28 586.38
29 690.88
30 823.98
31 879.58
32 950.98
33 1020.98
34 1229.48
35 1296.88
36 1369.98
37 1441.08
38 1513.18
39 1609.58
